waveforms/tb_top.vcd
$date
   Tue Mar 10 17:51:33 2026
$end

$version
  2025.1.0
  $dumpfile ("tb_top.vcd") 
$end

$timescale
  1ps
$end

$scope module tb_top $end
$var reg 1 ! clk $end
$var reg 1 " rst_n $end
$var reg 1 # start $end
$var reg 1 $ wr_en_a $end
$var reg 1 % wr_en_b $end
$var reg 8 & wr_addr [7:0] $end
$var reg 32 ' wr_data [31:0] $end
$var reg 2 ( rd_row [1:0] $end
$var reg 2 ) rd_col [1:0] $end
$var reg 48 * result [47:0] $end
$var reg 1 + done $end
$var reg 1 , controller_error $end
$var reg 1 - sa_error $end
$var reg 1 . error_detected $end
$var reg 32 / pass_count [31:0] $end
$var reg 32 0 fail_count [31:0] $end
$scope module top $end
$var wire 1 1 clk $end
$var wire 1 2 rst_n $end
$var wire 1 3 start $end
$var wire 1 4 wr_en_a $end
$var wire 1 5 wr_en_b $end
$var wire 8 6 wr_addr [7:0] $end
$var wire 32 7 wr_data [31:0] $end
$var wire 2 8 rd_row [1:0] $end
$var wire 2 9 rd_col [1:0] $end
$var reg 48 * result [47:0] $end
$var reg 1 + done $end
$var reg 1 , controller_error $end
$var reg 1 - sa_error $end
$var reg 1 . error_detected $end
$var reg 32 : bram_a_dout [31:0] $end
$var reg 32 ; bram_b_dout [31:0] $end
$var reg 8 < rd_addr_a [7:0] $end
$var reg 8 = rd_addr_b [7:0] $end
$var reg 1 > bram_en $end
$var reg 1 ? clear $end
$var reg 32 @ sa_data [31:0] $end
$var reg 32 A sa_weight [31:0] $end
$var reg 768 B sa_result [767:0] $end
$var reg 1 C sa_done $end
$var wire 1 D feed_valid $end
$scope module bram_a_inst $end
$var wire 1 1 i_a_clk $end
$var wire 1 4 i_a_wr_en $end
$var wire 8 6 i_a_addr [7:0] $end
$var wire 32 7 i_a_din [31:0] $end
$var wire 1 1 i_b_clk $end
$var wire 1 E i_b_en $end
$var wire 8 F i_b_addr [7:0] $end
$var reg 32 : o_b_dout [31:0] $end
$upscope $end
$scope module bram_b_inst $end
$var wire 1 1 i_a_clk $end
$var wire 1 5 i_a_wr_en $end
$var wire 8 6 i_a_addr [7:0] $end
$var wire 32 7 i_a_din [31:0] $end
$var wire 1 1 i_b_clk $end
$var wire 1 G i_b_en $end
$var wire 8 H i_b_addr [7:0] $end
$var reg 32 ; o_b_dout [31:0] $end
$upscope $end
$scope module ctrl_inst $end
$var wire 1 1 i_clk $end
$var wire 1 2 i_rst_n $end
$var wire 1 3 i_start $end
$var wire 1 I i_done $end
$var reg 1 ? o_clear $end
$var reg 1 > o_bram_en $end
$var reg 8 < o_addr_a [7:0] $end
$var reg 8 = o_addr_b [7:0] $end
$var reg 1 J o_valid $end
$var reg 1 , o_error $end
$var reg 4 K state $end
$var reg 4 L next_state $end
$var reg 3 M feed_cnt [2:0] $end
$var reg 3 N next_feed_cnt [2:0] $end
$var reg 1 O next_clear $end
$var reg 1 P next_bram_en $end
$var reg 1 Q next_valid $end
$var reg 1 R next_error $end
$var reg 8 S next_addr_a [7:0] $end
$var reg 8 T next_addr_b [7:0] $end
$upscope $end
$scope module sa_inst $end
$var wire 1 1 i_clk $end
$var wire 1 2 i_rst_n $end
$var wire 1 U i_clear $end
$var wire 32 V i_data [31:0] $end
$var wire 32 W i_weight [31:0] $end
$var reg 768 B o_result [767:0] $end
$var reg 1 C o_done $end
$var reg 1 - o_error $end
$var reg 160 X data_w [159:0] $end
$var reg 160 Y weight_w [159:0] $end
$var reg 192 Z clear_pipe [191:0] $end
$var reg 192 [ next_clear_pipe [191:0] $end
$var reg 4 \ cycle_cnt [3:0] $end
$var reg 1 ] active $end
$var reg 1 ^ next_done $end
$var reg 1 _ next_error $end
$scope begin Block35_9 $end
$var reg 32 ` s [31:0] $end
$upscope $end
$scope module row[0].col[0].pe_inst $end
$var wire 1 1 i_clk $end
$var wire 1 2 i_rst_n $end
$var wire 1 a i_clear_accum $end
$var wire 8 b i_data [7:0] $end
$var wire 8 c i_weight [7:0] $end
$var reg 8 d o_data [15:8] $end
$var reg 8 e o_weight [39:32] $end
$var reg 48 f o_result [47:0] $end
$var reg 8 g data_r [7:0] $end
$var reg 8 h weight_r [7:0] $end
$var reg 16 i mult_r [15:0] $end
$var reg 48 j accum [47:0] $end
$var reg 48 k next_accum [47:0] $end
$upscope $end
$scope module row[0].col[1].pe_inst $end
$var wire 1 1 i_clk $end
$var wire 1 2 i_rst_n $end
$var wire 1 l i_clear_accum $end
$var wire 8 m i_data [7:0] $end
$var wire 8 n i_weight [7:0] $end
$var reg 8 o o_data [23:16] $end
$var reg 8 p o_weight [47:40] $end
$var reg 48 q o_result [95:48] $end
$var reg 8 r data_r [7:0] $end
$var reg 8 s weight_r [7:0] $end
$var reg 16 t mult_r [15:0] $end
$var reg 48 u accum [47:0] $end
$var reg 48 v next_accum [47:0] $end
$upscope $end
$scope module row[0].col[2].pe_inst $end
$var wire 1 1 i_clk $end
$var wire 1 2 i_rst_n $end
$var wire 1 w i_clear_accum $end
$var wire 8 x i_data [7:0] $end
$var wire 8 y i_weight [7:0] $end
$var reg 8 z o_data [31:24] $end
$var reg 8 { o_weight [55:48] $end
$var reg 48 | o_result [143:96] $end
$var reg 8 } data_r [7:0] $end
$var reg 8 ~ weight_r [7:0] $end
$var reg 16 !! mult_r [15:0] $end
$var reg 48 "! accum [47:0] $end
$var reg 48 #! next_accum [47:0] $end
$upscope $end
$scope module row[0].col[3].pe_inst $end
$var wire 1 1 i_clk $end
$var wire 1 2 i_rst_n $end
$var wire 1 $! i_clear_accum $end
$var wire 8 %! i_data [7:0] $end
$var wire 8 &! i_weight [7:0] $end
$var reg 8 '! o_data [39:32] $end
$var reg 8 (! o_weight [63:56] $end
$var reg 48 )! o_result [191:144] $end
$var reg 8 *! data_r [7:0] $end
$var reg 8 +! weight_r [7:0] $end
$var reg 16 ,! mult_r [15:0] $end
$var reg 48 -! accum [47:0] $end
$var reg 48 .! next_accum [47:0] $end
$upscope $end
$scope module row[1].col[0].pe_inst $end
$var wire 1 1 i_clk $end
$var wire 1 2 i_rst_n $end
$var wire 1 /! i_clear_accum $end
$var wire 8 0! i_data [7:0] $end
$var wire 8 1! i_weight [7:0] $end
$var reg 8 2! o_data [55:48] $end
$var reg 8 3! o_weight [71:64] $end
$var reg 48 4! o_result [239:192] $end
$var reg 8 5! data_r [7:0] $end
$var reg 8 6! weight_r [7:0] $end
$var reg 16 7! mult_r [15:0] $end
$var reg 48 8! accum [47:0] $end
$var reg 48 9! next_accum [47:0] $end
$upscope $end
$scope module row[1].col[1].pe_inst $end
$var wire 1 1 i_clk $end
$var wire 1 2 i_rst_n $end
$var wire 1 :! i_clear_accum $end
$var wire 8 ;! i_data [7:0] $end
$var wire 8 <! i_weight [7:0] $end
$var reg 8 =! o_data [63:56] $end
$var reg 8 >! o_weight [79:72] $end
$var reg 48 ?! o_result [287:240] $end
$var reg 8 @! data_r [7:0] $end
$var reg 8 A! weight_r [7:0] $end
$var reg 16 B! mult_r [15:0] $end
$var reg 48 C! accum [47:0] $end
$var reg 48 D! next_accum [47:0] $end
$upscope $end
$scope module row[1].col[2].pe_inst $end
$var wire 1 1 i_clk $end
$var wire 1 2 i_rst_n $end
$var wire 1 E! i_clear_accum $end
$var wire 8 F! i_data [7:0] $end
$var wire 8 G! i_weight [7:0] $end
$var reg 8 H! o_data [71:64] $end
$var reg 8 I! o_weight [87:80] $end
$var reg 48 J! o_result [335:288] $end
$var reg 8 K! data_r [7:0] $end
$var reg 8 L! weight_r [7:0] $end
$var reg 16 M! mult_r [15:0] $end
$var reg 48 N! accum [47:0] $end
$var reg 48 O! next_accum [47:0] $end
$upscope $end
$scope module row[1].col[3].pe_inst $end
$var wire 1 1 i_clk $end
$var wire 1 2 i_rst_n $end
$var wire 1 P! i_clear_accum $end
$var wire 8 Q! i_data [7:0] $end
$var wire 8 R! i_weight [7:0] $end
$var reg 8 S! o_data [79:72] $end
$var reg 8 T! o_weight [95:88] $end
$var reg 48 U! o_result [383:336] $end
$var reg 8 V! data_r [7:0] $end
$var reg 8 W! weight_r [7:0] $end
$var reg 16 X! mult_r [15:0] $end
$var reg 48 Y! accum [47:0] $end
$var reg 48 Z! next_accum [47:0] $end
$upscope $end
$scope module row[2].col[0].pe_inst $end
$var wire 1 1 i_clk $end
$var wire 1 2 i_rst_n $end
$var wire 1 [! i_clear_accum $end
$var wire 8 \! i_data [7:0] $end
$var wire 8 ]! i_weight [7:0] $end
$var reg 8 ^! o_data [95:88] $end
$var reg 8 _! o_weight [103:96] $end
$var reg 48 `! o_result [431:384] $end
$var reg 8 a! data_r [7:0] $end
$var reg 8 b! weight_r [7:0] $end
$var reg 16 c! mult_r [15:0] $end
$var reg 48 d! accum [47:0] $end
$var reg 48 e! next_accum [47:0] $end
$upscope $end
$scope module row[2].col[1].pe_inst $end
$var wire 1 1 i_clk $end
$var wire 1 2 i_rst_n $end
$var wire 1 f! i_clear_accum $end
$var wire 8 g! i_data [7:0] $end
$var wire 8 h! i_weight [7:0] $end
$var reg 8 i! o_data [103:96] $end
$var reg 8 j! o_weight [111:104] $end
$var reg 48 k! o_result [479:432] $end
$var reg 8 l! data_r [7:0] $end
$var reg 8 m! weight_r [7:0] $end
$var reg 16 n! mult_r [15:0] $end
$var reg 48 o! accum [47:0] $end
$var reg 48 p! next_accum [47:0] $end
$upscope $end
$scope module row[2].col[2].pe_inst $end
$var wire 1 1 i_clk $end
$var wire 1 2 i_rst_n $end
$var wire 1 q! i_clear_accum $end
$var wire 8 r! i_data [7:0] $end
$var wire 8 s! i_weight [7:0] $end
$var reg 8 t! o_data [111:104] $end
$var reg 8 u! o_weight [119:112] $end
$var reg 48 v! o_result [527:480] $end
$var reg 8 w! data_r [7:0] $end
$var reg 8 x! weight_r [7:0] $end
$var reg 16 y! mult_r [15:0] $end
$var reg 48 z! accum [47:0] $end
$var reg 48 {! next_accum [47:0] $end
$upscope $end
$scope module row[2].col[3].pe_inst $end
$var wire 1 1 i_clk $end
$var wire 1 2 i_rst_n $end
$var wire 1 |! i_clear_accum $end
$var wire 8 }! i_data [7:0] $end
$var wire 8 ~! i_weight [7:0] $end
$var reg 8 !" o_data [119:112] $end
$var reg 8 "" o_weight [127:120] $end
$var reg 48 #" o_result [575:528] $end
$var reg 8 $" data_r [7:0] $end
$var reg 8 %" weight_r [7:0] $end
$var reg 16 &" mult_r [15:0] $end
$var reg 48 '" accum [47:0] $end
$var reg 48 (" next_accum [47:0] $end
$upscope $end
$scope module row[3].col[0].pe_inst $end
$var wire 1 1 i_clk $end
$var wire 1 2 i_rst_n $end
$var wire 1 )" i_clear_accum $end
$var wire 8 *" i_data [7:0] $end
$var wire 8 +" i_weight [7:0] $end
$var reg 8 ," o_data [135:128] $end
$var reg 8 -" o_weight [135:128] $end
$var reg 48 ." o_result [623:576] $end
$var reg 8 /" data_r [7:0] $end
$var reg 8 0" weight_r [7:0] $end
$var reg 16 1" mult_r [15:0] $end
$var reg 48 2" accum [47:0] $end
$var reg 48 3" next_accum [47:0] $end
$upscope $end
$scope module row[3].col[1].pe_inst $end
$var wire 1 1 i_clk $end
$var wire 1 2 i_rst_n $end
$var wire 1 4" i_clear_accum $end
$var wire 8 5" i_data [7:0] $end
$var wire 8 6" i_weight [7:0] $end
$var reg 8 7" o_data [143:136] $end
$var reg 8 8" o_weight [143:136] $end
$var reg 48 9" o_result [671:624] $end
$var reg 8 :" data_r [7:0] $end
$var reg 8 ;" weight_r [7:0] $end
$var reg 16 <" mult_r [15:0] $end
$var reg 48 =" accum [47:0] $end
$var reg 48 >" next_accum [47:0] $end
$upscope $end
$scope module row[3].col[2].pe_inst $end
$var wire 1 1 i_clk $end
$var wire 1 2 i_rst_n $end
$var wire 1 ?" i_clear_accum $end
$var wire 8 @" i_data [7:0] $end
$var wire 8 A" i_weight [7:0] $end
$var reg 8 B" o_data [151:144] $end
$var reg 8 C" o_weight [151:144] $end
$var reg 48 D" o_result [719:672] $end
$var reg 8 E" data_r [7:0] $end
$var reg 8 F" weight_r [7:0] $end
$var reg 16 G" mult_r [15:0] $end
$var reg 48 H" accum [47:0] $end
$var reg 48 I" next_accum [47:0] $end
$upscope $end
$scope module row[3].col[3].pe_inst $end
$var wire 1 1 i_clk $end
$var wire 1 2 i_rst_n $end
$var wire 1 J" i_clear_accum $end
$var wire 8 K" i_data [7:0] $end
$var wire 8 L" i_weight [7:0] $end
$var reg 8 M" o_data [159:152] $end
$var reg 8 N" o_weight [159:152] $end
$var reg 48 O" o_result [767:720] $end
$var reg 8 P" data_r [7:0] $end
$var reg 8 Q" weight_r [7:0] $end
$var reg 16 R" mult_r [15:0] $end
$var reg 48 S" accum [47:0] $end
$var reg 48 T" next_accum [47:0] $end
$upscope $end
$upscope $end
$upscope $end
$scope begin Block174_51 $end
$var reg 32 U" c [31:0] $end
$scope begin Block175_52 $end
$var reg 32 V" i [31:0] $end
$scope begin Block176_53 $end
$var reg 32 W" j [31:0] $end
$upscope $end
$upscope $end
$upscope $end
$scope begin Block186_54 $end
$var reg 32 X" tc [31:0] $end
$scope begin Block186_55 $end
$var reg 1 Y" timed_out $end
$upscope $end
$upscope $end
$scope task reset_dut $end
$upscope $end
$scope task write_matrix $end
$upscope $end
$scope task run_and_wait $end
$upscope $end
$scope task check_results $end
$scope begin Block134_47 $end
$upscope $end
$upscope $end
$scope task reset_between_tests $end
$upscope $end
$upscope $end
$enddefinitions $end

#0
$dumpvars
0!
bx !!
bx !"
0"
bx "!
bx ""
0#
bx #!
bx #"
0$
x$!
bx $"
0%
bx %!
bx %"
b0 &
bx &!
bx &"
b0 '
bx '!
bx '"
b0 (
bx (!
bx ("
b0 )
bx )!
x)"
bx *
bx *!
bx *"
x+
bx +!
bx +"
x,
bx ,!
bx ,"
x-
bx -!
bx -"
x.
bx .!
bx ."
b0 /
x/!
bx /"
b0 0
bx 0!
bx 0"
01
bx 1!
bx 1"
02
bx 2!
bx 2"
03
bx 3!
bx 3"
04
bx 4!
x4"
05
bx 5!
bx 5"
b0 6
bx 6!
bx 6"
b0 7
bx 7!
bx 7"
b0 8
bx 8!
bx 8"
b0 9
bx 9!
bx 9"
bx :
x:!
bx :"
bx ;
bx ;!
bx ;"
bx <
bx <!
bx <"
bx =
bx =!
bx ="
x>
bx >!
bx >"
x?
bx ?!
x?"
bx @
bx @!
bx @"
bx A
bx A!
bx A"
bx B
bx B!
bx B"
xC
bx C!
bx C"
xD
bx D!
bx D"
xE
xE!
bx E"
bx F
bx F!
bx F"
xG
bx G!
bx G"
bx H
bx H!
bx H"
xI
bx I!
bx I"
xJ
bx J!
xJ"
bx K
bx K!
bx K"
bx L
bx L!
bx L"
bx M
bx M!
bx M"
bx N
bx N!
bx N"
0O
bx O!
bx O"
0P
xP!
bx P"
0Q
bx Q!
bx Q"
xR
bx R!
bx R"
b0 S
bx S!
bx S"
b0 T
bx T!
bx T"
xU
bx U!
b1101 U"
bx V
bx V!
b100 V"
bx W
bx W!
b100 W"
bx X
bx X!
b0 X"
bx Y
bx Y!
xY"
bx Z
bx Z!
bx [
x[!
bx \
bx \!
x]
bx ]!
x^
bx ^!
x_
bx _!
b1100 `
bx `!
xa
bx a!
bx b
bx b!
bx c
bx c!
bx d
bx d!
bx e
bx e!
bx f
xf!
bx g
bx g!
bx h
bx h!
bx i
bx i!
bx j
bx j!
bx k
bx k!
xl
bx l!
bx m
bx m!
bx n
bx n!
bx o
bx o!
bx p
bx p!
bx q
xq!
bx r
bx r!
bx s
bx s!
bx t
bx t!
bx u
bx u!
bx v
bx v!
xw
bx w!
bx x
bx x!
bx y
bx y!
bx z
bx z!
bx {
bx {!
bx |
x|!
bx }
bx }!
bx ~
bx ~!
$end

#5000
1!
b0 !!
b0 !"
b0 "!
b0 ""
b0 #!
b0 #"
0$!
b0 $"
b0 %!
b0 %"
b0 &!
b0 &"
b0 '!
b0 '"
b0 (!
b0 ("
b0 )!
0)"
b0 *
b0 *!
b0 *"
0+
b0 +!
b0 +"
0,
b0 ,!
b0 ,"
0-
b0 -!
b0 -"
0.
b0 .!
b0 ."
0/!
b0 /"
b0 0!
b0 0"
11
b0 1!
b0 1"
b0 2!
b0 2"
b0 3!
b0 3"
b0 4!
04"
b0 5!
b0 5"
b0 6!
b0 6"
b0 7!
b0 7"
b0 8!
b0 8"
b0 9!
b0 9"
0:!
b0 :"
b0 ;!
b0 ;"
b0 <
b0 <!
b0 <"
b0 =
b0 =!
b0 ="
0>
b0 >!
b0 >"
0?
b0 ?!
0?"
b0 @
b0 @!
b0 @"
b0 A
b0 A!
b0 A"
b0 B
b0 B!
b0 B"
0C
b0 C!
b0 C"
0D
b0 D!
b0 D"
0E
0E!
b0 E"
b0 F
b0 F!
b0 F"
0G
b0 G!
b0 G"
b0 H
b0 H!
b0 H"
0I
b0 I!
b0 I"
0J
b0 J!
0J"
b1 K
b0 K!
b0 K"
b1 L
b0 L!
b0 L"
b0 M
b0 M!
b0 M"
b0 N
b0 N!
b0 N"
b0 O!
b0 O"
0P!
b0 P"
b0 Q!
b0 Q"
0R
b0 R!
b0 R"
b0 S!
b0 S"
b0 T!
b0 T"
0U
b0 U!
b0 V
b0 V!
b0 W
b0 W!
b0 X
b0 X!
b0 Y
b0 Y!
b0 Z
b0 Z!
b0 [
0[!
b0 \
b0 \!
0]
b0 ]!
0^
b0 ^!
0_
b0 _!
b1100 `
b0 `!
0a
b0 a!
b0 b
b0 b!
b0 c
b0 c!
b0 d
b0 d!
b0 e
b0 e!
b0 f
0f!
b0 g
b0 g!
b0 h
b0 h!
b0 i
b0 i!
b0 j
b0 j!
b0 k
b0 k!
0l
b0 l!
b0 m
b0 m!
b0 n
b0 n!
b0 o
b0 o!
b0 p
b0 p!
b0 q
0q!
b0 r
b0 r!
b0 s
b0 s!
b0 t
b0 t!
b0 u
b0 u!
b0 v
b0 v!
0w
b0 w!
b0 x
b0 x!
b0 y
b0 y!
b0 z
b0 z!
b0 {
b0 {!
b0 |
0|!
b0 }
b0 }!
b0 ~
b0 ~!

#10000
0!
01

#15000
1!
11

#20000
0!
01

#25000
1!
11

#30000
0!
01

#35000
1!
1"
11
12

#40000
0!
01

#45000
1!
11

#50000
0!
01

#55000
1!
11

#56000
1$
b1 '
14
b1 7

#60000
0!
01

#65000
1!
11

#66000
b1 &
b0 '
b1 6
b0 7

#70000
0!
01

#75000
1!
11

#76000
b10 &
b100000000 '
b10 6
b100000000 7

#80000
0!
01

#85000
1!
11

#86000
b11 &
b0 '
b11 6
b0 7

#90000
0!
01

#95000
1!
11

#96000
b100 &
b10000000000000000 '
b100 6
b10000000000000000 7

#100000
0!
01

#105000
1!
11

#106000
b101 &
b0 '
b101 6
b0 7

#110000
0!
01

#115000
1!
11

#116000
b110 &
b1000000000000000000000000 '
b110 6
b1000000000000000000000000 7

#120000
0!
01

#125000
1!
11

#126000
0$
04

#130000
0!
01

#135000
1!
11

#136000
1%
b0 &
b10111001 '
15
b0 6
b10111001 7

#140000
0!
01

#145000
1!
11

#146000
b1 &
b1000110011110010 '
b1 6
b1000110011110010 7

#150000
0!
01

#155000
1!
11

#156000
b10 &
b11001100011101011000 '
b10 6
b11001100011101011000 7

#160000
0!
01

#165000
1!
11

#166000
b11 &
b11111101101101001001000011101111 '
b11 6
b11111101101101001001000011101111 7

#170000
0!
01

#175000
1!
11

#176000
b100 &
b10101100100011111111011100000000 '
b100 6
b10101100100011111111011100000000 7

#180000
0!
01

#185000
1!
11

#186000
b101 &
b10101111100011010000000000000000 '
b101 6
b10101111100011010000000000000000 7

#190000
0!
01

#195000
1!
11

#196000
b110 &
b11100101000000000000000000000000 '
b110 6
b11100101000000000000000000000000 7

#200000
0!
01

#205000
1!
11

#206000
0%
05

#210000
0!
01

#215000
1!
11

#220000
0!
01

#225000
1!
11

#226000
1#
13
b10 L
1O

#230000
0!
01

#235000
1!
11
1?
b10 K
b100 L
0O
1P
1U
b1111111111111111 [
b1100 `

#236000
0#
03
b100 L
1P

#240000
0!
01

#245000
1!
11
1>
0?
1E
1G
b100 K
b1 N
1P
1Q
b1 S
b1 T
0U
b1111111111111111 Z
b11111111111111110000000000000000 [
1]
b1100 `
1a

#250000
0!
01

#255000
1!
1/!
11
b1 :
b10111001 ;
b1 <
b1 =
b1 @
b10111001 A
1D
b1 F
b1 H
1J
b1 M
b10 N
1P
1Q
b10 S
b10 T
b1 V
b10111001 W
b1 X
b10111001 Y
b11111111111111110000000000000000 Z
b111111111111111100000000000000000000000000000000 [
b1 \
b1100 `
0a
b1 b
b10111001 c
1l

#260000
0!
01

#265000
1!
0/!
11
b10111001 1!
b0 :
1:!
b1000110011110010 ;
b10 <
b10 =
b0 @
b1000110011110010 A
b10 F
b10 H
b10 M
b11 N
1P
1Q
b11 S
b11 T
b0 V
b1000110011110010 W
b100000000 X
b1011100100000000000000001000110011110010 Y
b111111111111111100000000000000000000000000000000 Z
b1111111111111111000000000000000000000000000000000000000000000000 [
1[!
b10 \
b1100 `
b0 b
b11110010 c
b1 d
b10111001 e
b1 g
b10111001 h
0l
b1 m
b10001100 n
1w

#270000
0!
01

#275000
1!
1$!
1)"
b1 0!
11
b11110010 1!
b10111001 3!
b10111001 6!
b100000000 :
0:!
b11001100011101011000 ;
b11 <
b10001100 <!
b11 =
b100000000 @
b11001100011101011000 A
1E!
b11 F
b11 H
b11 M
b100 N
1P
1Q
b100 S
b100 T
b100000000 V
b11001100011101011000 W
b10000000000000000000000010000000000000000 X
b101110010000000000000000100011001111001000000000000011001100011101011000 Y
b1111111111111111000000000000000000000000000000000000000000000000 Z
b11111111111111110000000000000000000000000000000000000000000000000000000000000000 [
0[!
b11 \
b10111001 ]!
b1100 `
b1011000 c
b0 d
b11110010 e
1f!
b0 g
b11110010 h
b1111111110111001 i
b111111111111111111111111111111111111111110111001 k
b0 m
b11000111 n
b1 o
b10001100 p
b1 r
b10001100 s
0w
b1 x
b1100 y

#280000
0!
01

#285000
1!
0$!
b1 %!
b11111101 &!
0)"
b111111111111111111111111111111111111111110111001 *
b10111001 +"
b0 0!
11
b1011000 1!
b1 2!
b11110010 3!
14"
b1 5!
b11110010 6!
b0 :
b11111101101101001001000011101111 ;
b1 ;!
b100 <
b11000111 <!
b100 =
b10001100 >!
b0 @
b11111101101101001001000011101111 A
b10001100 A!
b111111111111111111111111111111111111111110111001 B
0E!
b100 F
b1100 G!
b100 H
b100 M
b101 N
1P
1P!
1Q
b101 S
b101 T
b0 V
b11111101101101001001000011101111 W
b1000000000000000000000001000000000000000000000000 X
b10111001000000000000000010001100111100100000000000001100110001110101100011111101101101001001000011101111 Y
b11111111111111110000000000000000000000000000000000000000000000000000000000000000 Z
b111111111111111100000000000000000000000000000000000000000000000000000000000000000000000000000000 [
b100 \
b11110010 ]!
b10111001 _!
b1100 `
b10111001 b!
b11101111 c
b1011000 e
b111111111111111111111111111111111111111110111001 f
0f!
b1011000 h
b10001100 h!
b0 i
b111111111111111111111111111111111111111110111001 j
b10010000 n
b0 o
b11000111 p
1q!
b0 r
b11000111 s
b1111111110001100 t
b111111111111111111111111111111111111111110001100 v
b0 x
b10110100 y
b1 z
b1100 {
b1 }
b1100 ~

#290000
0!
01

#295000
1!
b1100 !!
b1100 #!
b0 %!
b10101100 &!
b1 '!
b11111101 (!
b1 *!
b11111101 +!
b11110010 +"
b10111001 -"
b10111001 0"
11
b11101111 1!
b0 2!
b1011000 3!
04"
b0 5!
b1011000 6!
b10001100 6"
b1111111111110010 7!
b111111111111111111111111111111111111111111110010 9!
b10000000000000000 :
b10101100100011111111011100000000 ;
b0 ;!
b101 <
b10010000 <!
b101 =
b1 =!
b11000111 >!
1?"
b10000000000000000 @
b1 @!
b10101100100011111111011100000000 A
b11000111 A!
b111111111111111111111111111111111111111110001100111111111111111111111111111111111111111110111001 B
b101 F
b1 F!
b10110100 G!
b101 H
b1100 I!
b1100 L!
b101 M
b110 N
1P
0P!
1Q
b11111101 R!
b110 S
b110 T
b10000000000000000 V
b10101100100011111111011100000000 W
b100000000000000000000000100000000000000000000000100000000000000000000000000000000 X
b1011100100000000000000001000110011110010000000000000110011000111010110001111110110110100100100001110111110101100100011111111011100000000 Y
b111111111111111100000000000000000000000000000000000000000000000000000000000000000000000000000000 Z
b1111111111111111000000000000000000000000000000000000000000000000000000000000000000000000000000000000000000000000 [
b101 \
b1 \!
b1011000 ]!
b11110010 _!
b1100 `
b11110010 b!
b0 c
b11101111 e
b11101111 h
b11000111 h!
b10001100 j!
b10001100 m!
b11110111 n
b10010000 p
b111111111111111111111111111111111111111110001100 q
0q!
b10010000 s
b1100 s!
b0 t
b111111111111111111111111111111111111111110001100 u
b10001111 y
b0 z
b10110100 {
1|!
b0 }
b10110100 ~

#300000
0!
01

#305000
1!
b0 !!
b1100 "!
b10101111 &!
b0 '!
b10101100 (!
b0 *!
b10101100 +!
b1011000 +"
b1111111111111101 ,!
b11110010 -"
b111111111111111111111111111111111111111111111101 .!
b11110010 0"
11
b0 1!
b11101111 3!
b111111111111111111111111111111111111111111110010 4!
b11101111 6!
b11000111 6"
b0 7!
b111111111111111111111111111111111111111111110010 8!
b10001100 8"
b0 :
b10101111100011010000000000000000 ;
b10001100 ;"
b110 <
b11110111 <!
b110 =
b0 =!
b10010000 >!
0?"
b0 @
b0 @!
b10101111100011010000000000000000 A
b10010000 A!
b1100 A"
b111111111111111111111111111111111111111111110010000000000000000000000000000000000000000000000000000000000000000000000000000000000000000000001100111111111111111111111111111111111111111110001100111111111111111111111111111111111111111110111001 B
b1111111111000111 B!
b111111111111111111111111111111111111111111000111 D!
b110 F
b0 F!
b10001111 G!
b110 H
b1 H!
b10110100 I!
1J"
b1 K!
b1000 L
b10110100 L!
b110 M
0P
1Q
b1 Q!
b10101100 R!
b0 S
b0 T
b11111101 T!
b0 V
b10101111100011010000000000000000 W
b11111101 W!
b10000000000000000000000010000000000000000000000000000000000000000000000000000000000000000 X
b100011001111001000000000000011001100011101011000111111011011010010010000111011111010110010001111111101110000000010101111100011010000000000000000 Y
b1111111111111111000000000000000000000000000000000000000000000000000000000000000000000000000000000000000000000000 Z
b11111111111111110000000000000000000000000000000000000000000000000000000000000000000000000000000000000000000000000000000000000000 [
b110 \
b0 \!
b11101111 ]!
b1 ^!
b1011000 _!
b1100 `
b1 a!
b1011000 b!
b0 e
b1 g!
b0 h
b10010000 h!
b11000111 j!
b11000111 m!
b0 n
b11110111 p
b11110111 s
b10110100 s!
b1100 u!
b1100 x!
b10001101 y
b10001111 {
b1100 |
0|!
b10001111 ~
b11111101 ~!

#310000
0!
01

#315000
1!
b11111101 ""
b11111101 %"
b11100101 &!
b10101111 (!
b111111111111111111111111111111111111111111111101 )!
b1 *"
b10101111 +!
b11101111 +"
b0 ,!
b111111111111111111111111111111111111111111111101 -!
b1011000 -"
b1011000 0"
11
b0 3!
b0 6!
b10010000 6"
b11000111 8"
b1000000000000000000000000 :
b11100101000000000000000000000000 ;
b11000111 ;"
b0 <
b0 <!
b0 =
0>
b11110111 >!
b111111111111111111111111111111111111111111000111 ?!
b1000000000000000000000000 @
b11100101000000000000000000000000 A
b11110111 A!
b10110100 A"
b111111111111111111111111111111111111111111000111111111111111111111111111111111111111111111110010111111111111111111111111111111111111111111111101000000000000000000000000000000000000000000001100111111111111111111111111111111111111111110001100111111111111111111111111111111111111111110111001 B
b0 B!
b111111111111111111111111111111111111111111000111 C!
b1100 C"
0E
b0 F
b1100 F"
0G
b10001101 G!
b0 H
b0 H!
b10001111 I!
0J"
b1000 K
b0 K!
b10001111 L!
b11111101 L"
b1111111110110100 M!
b111111111111111111111111111111111111111110110100 O!
0Q
b0 Q!
b10101111 R!
b1 S!
b10101100 T!
b1000000000000000000000000 V
b1 V!
b11100101000000000000000000000000 W
b10101100 W!
b1000000000000000000000001000000000000000000000001000000000000000000000000000000000000000000000000000000000000000000000000 X
b1100110001110101100011111101101101001001000011101111101011001000111111110111000000001010111110001101000000000000000011100101000000000000000000000000 Y
b11111111111111110000000000000000000000000000000000000000000000000000000000000000000000000000000000000000000000000000000000000000 Z
b111111111111111100000000000000000000000000000000000000000000000000000000000000000000000000000000000000000000000000000000000000000000000000000000 [
b111 \
b0 ]!
b0 ^!
b11101111 _!
b1100 `
b0 a!
b11101111 b!
b1011000 c!
b1011000 e!
b0 g!
b11110111 h!
b1 i!
b10010000 j!
b1 l!
b10010000 m!
b0 p
b1 r!
b0 s
b10001111 s!
b10110100 u!
b10110100 x!
b0 y
b10001101 {
b10001101 ~
b10101100 ~!

#320000
0!
01

