waveforms/tb_top.vcd
$date
   Tue Mar 10 18:50:43 2026
$end

$version
  2025.1.0
  $dumpfile ("tb_top.vcd") 
$end

$timescale
  1ps
$end

$scope module tb_top $end
$var reg 1 ! clk $end
$var reg 1 " rst_n $end
$var reg 1 # start $end
$var reg 1 $ wr_en_a $end
$var reg 1 % wr_en_b $end
$var reg 8 & wr_addr [7:0] $end
$var reg 32 ' wr_data [31:0] $end
$var reg 2 ( rd_row [1:0] $end
$var reg 2 ) rd_col [1:0] $end
$var reg 48 * result [47:0] $end
$var reg 1 + done $end
$var reg 1 , controller_error $end
$var reg 1 - sa_error $end
$var reg 1 . error_detected $end
$var reg 32 / pass_count [31:0] $end
$var reg 32 0 fail_count [31:0] $end
$scope module top $end
$var wire 1 1 clk $end
$var wire 1 2 rst_n $end
$var wire 1 3 start $end
$var wire 1 4 wr_en_a $end
$var wire 1 5 wr_en_b $end
$var wire 8 6 wr_addr [7:0] $end
$var wire 32 7 wr_data [31:0] $end
$var wire 2 8 rd_row [1:0] $end
$var wire 2 9 rd_col [1:0] $end
$var reg 48 * result [47:0] $end
$var reg 1 + done $end
$var reg 1 , controller_error $end
$var reg 1 - sa_error $end
$var reg 1 . error_detected $end
$var reg 32 : bram_a_dout [31:0] $end
$var reg 32 ; bram_b_dout [31:0] $end
$var reg 8 < rd_addr_a [7:0] $end
$var reg 8 = rd_addr_b [7:0] $end
$var reg 1 > bram_en $end
$var reg 1 ? clear $end
$var reg 32 @ sa_data [31:0] $end
$var reg 32 A sa_weight [31:0] $end
$var reg 768 B sa_result [767:0] $end
$var reg 1 C sa_done $end
$var reg 1 D feed_valid $end
$scope module bram_a_inst $end
$var wire 1 1 i_a_clk $end
$var wire 1 4 i_a_wr_en $end
$var wire 8 6 i_a_addr [7:0] $end
$var wire 32 7 i_a_din [31:0] $end
$var wire 1 1 i_b_clk $end
$var wire 1 E i_b_en $end
$var wire 8 F i_b_addr [7:0] $end
$var reg 32 : o_b_dout [31:0] $end
$upscope $end
$scope module bram_b_inst $end
$var wire 1 1 i_a_clk $end
$var wire 1 5 i_a_wr_en $end
$var wire 8 6 i_a_addr [7:0] $end
$var wire 32 7 i_a_din [31:0] $end
$var wire 1 1 i_b_clk $end
$var wire 1 G i_b_en $end
$var wire 8 H i_b_addr [7:0] $end
$var reg 32 ; o_b_dout [31:0] $end
$upscope $end
$scope module ctrl_inst $end
$var wire 1 1 i_clk $end
$var wire 1 2 i_rst_n $end
$var wire 1 3 i_start $end
$var wire 1 I i_done $end
$var reg 1 ? o_clear $end
$var reg 1 > o_bram_en $end
$var reg 8 < o_addr_a [7:0] $end
$var reg 8 = o_addr_b [7:0] $end
$var reg 1 D o_valid $end
$var reg 1 , o_error $end
$var reg 4 J state $end
$var reg 4 K next_state $end
$var reg 3 L feed_cnt [2:0] $end
$var reg 3 M next_feed_cnt [2:0] $end
$var reg 1 N next_clear $end
$var reg 1 O next_bram_en $end
$var reg 1 P next_valid $end
$var reg 1 Q next_error $end
$var reg 8 R next_addr_a [7:0] $end
$var reg 8 S next_addr_b [7:0] $end
$upscope $end
$scope module sa_inst $end
$var wire 1 1 i_clk $end
$var wire 1 2 i_rst_n $end
$var wire 1 T i_clear $end
$var wire 32 U i_data [31:0] $end
$var wire 32 V i_weight [31:0] $end
$var reg 768 B o_result [767:0] $end
$var reg 1 C o_done $end
$var reg 1 - o_error $end
$var reg 160 W data_w [159:0] $end
$var reg 160 X weight_w [159:0] $end
$var reg 112 Y clear_pipe [111:0] $end
$var reg 4 Z cycle_cnt [3:0] $end
$var reg 1 [ active $end
$scope begin Block38_10 $end
$var reg 32 \ s [31:0] $end
$upscope $end
$scope module row[0].col[0].pe_inst $end
$var wire 1 1 i_clk $end
$var wire 1 2 i_rst_n $end
$var wire 1 ] i_clear_accum $end
$var wire 8 ^ i_data [7:0] $end
$var wire 8 _ i_weight [7:0] $end
$var reg 8 ` o_data [15:8] $end
$var reg 8 a o_weight [39:32] $end
$var reg 48 b o_result [47:0] $end
$var reg 8 c data_r [7:0] $end
$var reg 8 d weight_r [7:0] $end
$var reg 16 e mult_r [15:0] $end
$var reg 48 f accum [47:0] $end
$var reg 48 g next_accum [47:0] $end
$var reg 1 h clear_d1 $end
$var reg 1 i clear_d2 $end
$upscope $end
$scope module row[0].col[1].pe_inst $end
$var wire 1 1 i_clk $end
$var wire 1 2 i_rst_n $end
$var wire 1 j i_clear_accum $end
$var wire 8 k i_data [7:0] $end
$var wire 8 l i_weight [7:0] $end
$var reg 8 m o_data [23:16] $end
$var reg 8 n o_weight [47:40] $end
$var reg 48 o o_result [95:48] $end
$var reg 8 p data_r [7:0] $end
$var reg 8 q weight_r [7:0] $end
$var reg 16 r mult_r [15:0] $end
$var reg 48 s accum [47:0] $end
$var reg 48 t next_accum [47:0] $end
$var reg 1 u clear_d1 $end
$var reg 1 v clear_d2 $end
$upscope $end
$scope module row[0].col[2].pe_inst $end
$var wire 1 1 i_clk $end
$var wire 1 2 i_rst_n $end
$var wire 1 w i_clear_accum $end
$var wire 8 x i_data [7:0] $end
$var wire 8 y i_weight [7:0] $end
$var reg 8 z o_data [31:24] $end
$var reg 8 { o_weight [55:48] $end
$var reg 48 | o_result [143:96] $end
$var reg 8 } data_r [7:0] $end
$var reg 8 ~ weight_r [7:0] $end
$var reg 16 !! mult_r [15:0] $end
$var reg 48 "! accum [47:0] $end
$var reg 48 #! next_accum [47:0] $end
$var reg 1 $! clear_d1 $end
$var reg 1 %! clear_d2 $end
$upscope $end
$scope module row[0].col[3].pe_inst $end
$var wire 1 1 i_clk $end
$var wire 1 2 i_rst_n $end
$var wire 1 &! i_clear_accum $end
$var wire 8 '! i_data [7:0] $end
$var wire 8 (! i_weight [7:0] $end
$var reg 8 )! o_data [39:32] $end
$var reg 8 *! o_weight [63:56] $end
$var reg 48 +! o_result [191:144] $end
$var reg 8 ,! data_r [7:0] $end
$var reg 8 -! weight_r [7:0] $end
$var reg 16 .! mult_r [15:0] $end
$var reg 48 /! accum [47:0] $end
$var reg 48 0! next_accum [47:0] $end
$var reg 1 1! clear_d1 $end
$var reg 1 2! clear_d2 $end
$upscope $end
$scope module row[1].col[0].pe_inst $end
$var wire 1 1 i_clk $end
$var wire 1 2 i_rst_n $end
$var wire 1 3! i_clear_accum $end
$var wire 8 4! i_data [7:0] $end
$var wire 8 5! i_weight [7:0] $end
$var reg 8 6! o_data [55:48] $end
$var reg 8 7! o_weight [71:64] $end
$var reg 48 8! o_result [239:192] $end
$var reg 8 9! data_r [7:0] $end
$var reg 8 :! weight_r [7:0] $end
$var reg 16 ;! mult_r [15:0] $end
$var reg 48 <! accum [47:0] $end
$var reg 48 =! next_accum [47:0] $end
$var reg 1 >! clear_d1 $end
$var reg 1 ?! clear_d2 $end
$upscope $end
$scope module row[1].col[1].pe_inst $end
$var wire 1 1 i_clk $end
$var wire 1 2 i_rst_n $end
$var wire 1 @! i_clear_accum $end
$var wire 8 A! i_data [7:0] $end
$var wire 8 B! i_weight [7:0] $end
$var reg 8 C! o_data [63:56] $end
$var reg 8 D! o_weight [79:72] $end
$var reg 48 E! o_result [287:240] $end
$var reg 8 F! data_r [7:0] $end
$var reg 8 G! weight_r [7:0] $end
$var reg 16 H! mult_r [15:0] $end
$var reg 48 I! accum [47:0] $end
$var reg 48 J! next_accum [47:0] $end
$var reg 1 K! clear_d1 $end
$var reg 1 L! clear_d2 $end
$upscope $end
$scope module row[1].col[2].pe_inst $end
$var wire 1 1 i_clk $end
$var wire 1 2 i_rst_n $end
$var wire 1 M! i_clear_accum $end
$var wire 8 N! i_data [7:0] $end
$var wire 8 O! i_weight [7:0] $end
$var reg 8 P! o_data [71:64] $end
$var reg 8 Q! o_weight [87:80] $end
$var reg 48 R! o_result [335:288] $end
$var reg 8 S! data_r [7:0] $end
$var reg 8 T! weight_r [7:0] $end
$var reg 16 U! mult_r [15:0] $end
$var reg 48 V! accum [47:0] $end
$var reg 48 W! next_accum [47:0] $end
$var reg 1 X! clear_d1 $end
$var reg 1 Y! clear_d2 $end
$upscope $end
$scope module row[1].col[3].pe_inst $end
$var wire 1 1 i_clk $end
$var wire 1 2 i_rst_n $end
$var wire 1 Z! i_clear_accum $end
$var wire 8 [! i_data [7:0] $end
$var wire 8 \! i_weight [7:0] $end
$var reg 8 ]! o_data [79:72] $end
$var reg 8 ^! o_weight [95:88] $end
$var reg 48 _! o_result [383:336] $end
$var reg 8 `! data_r [7:0] $end
$var reg 8 a! weight_r [7:0] $end
$var reg 16 b! mult_r [15:0] $end
$var reg 48 c! accum [47:0] $end
$var reg 48 d! next_accum [47:0] $end
$var reg 1 e! clear_d1 $end
$var reg 1 f! clear_d2 $end
$upscope $end
$scope module row[2].col[0].pe_inst $end
$var wire 1 1 i_clk $end
$var wire 1 2 i_rst_n $end
$var wire 1 g! i_clear_accum $end
$var wire 8 h! i_data [7:0] $end
$var wire 8 i! i_weight [7:0] $end
$var reg 8 j! o_data [95:88] $end
$var reg 8 k! o_weight [103:96] $end
$var reg 48 l! o_result [431:384] $end
$var reg 8 m! data_r [7:0] $end
$var reg 8 n! weight_r [7:0] $end
$var reg 16 o! mult_r [15:0] $end
$var reg 48 p! accum [47:0] $end
$var reg 48 q! next_accum [47:0] $end
$var reg 1 r! clear_d1 $end
$var reg 1 s! clear_d2 $end
$upscope $end
$scope module row[2].col[1].pe_inst $end
$var wire 1 1 i_clk $end
$var wire 1 2 i_rst_n $end
$var wire 1 t! i_clear_accum $end
$var wire 8 u! i_data [7:0] $end
$var wire 8 v! i_weight [7:0] $end
$var reg 8 w! o_data [103:96] $end
$var reg 8 x! o_weight [111:104] $end
$var reg 48 y! o_result [479:432] $end
$var reg 8 z! data_r [7:0] $end
$var reg 8 {! weight_r [7:0] $end
$var reg 16 |! mult_r [15:0] $end
$var reg 48 }! accum [47:0] $end
$var reg 48 ~! next_accum [47:0] $end
$var reg 1 !" clear_d1 $end
$var reg 1 "" clear_d2 $end
$upscope $end
$scope module row[2].col[2].pe_inst $end
$var wire 1 1 i_clk $end
$var wire 1 2 i_rst_n $end
$var wire 1 #" i_clear_accum $end
$var wire 8 $" i_data [7:0] $end
$var wire 8 %" i_weight [7:0] $end
$var reg 8 &" o_data [111:104] $end
$var reg 8 '" o_weight [119:112] $end
$var reg 48 (" o_result [527:480] $end
$var reg 8 )" data_r [7:0] $end
$var reg 8 *" weight_r [7:0] $end
$var reg 16 +" mult_r [15:0] $end
$var reg 48 ," accum [47:0] $end
$var reg 48 -" next_accum [47:0] $end
$var reg 1 ." clear_d1 $end
$var reg 1 /" clear_d2 $end
$upscope $end
$scope module row[2].col[3].pe_inst $end
$var wire 1 1 i_clk $end
$var wire 1 2 i_rst_n $end
$var wire 1 0" i_clear_accum $end
$var wire 8 1" i_data [7:0] $end
$var wire 8 2" i_weight [7:0] $end
$var reg 8 3" o_data [119:112] $end
$var reg 8 4" o_weight [127:120] $end
$var reg 48 5" o_result [575:528] $end
$var reg 8 6" data_r [7:0] $end
$var reg 8 7" weight_r [7:0] $end
$var reg 16 8" mult_r [15:0] $end
$var reg 48 9" accum [47:0] $end
$var reg 48 :" next_accum [47:0] $end
$var reg 1 ;" clear_d1 $end
$var reg 1 <" clear_d2 $end
$upscope $end
$scope module row[3].col[0].pe_inst $end
$var wire 1 1 i_clk $end
$var wire 1 2 i_rst_n $end
$var wire 1 =" i_clear_accum $end
$var wire 8 >" i_data [7:0] $end
$var wire 8 ?" i_weight [7:0] $end
$var reg 8 @" o_data [135:128] $end
$var reg 8 A" o_weight [135:128] $end
$var reg 48 B" o_result [623:576] $end
$var reg 8 C" data_r [7:0] $end
$var reg 8 D" weight_r [7:0] $end
$var reg 16 E" mult_r [15:0] $end
$var reg 48 F" accum [47:0] $end
$var reg 48 G" next_accum [47:0] $end
$var reg 1 H" clear_d1 $end
$var reg 1 I" clear_d2 $end
$upscope $end
$scope module row[3].col[1].pe_inst $end
$var wire 1 1 i_clk $end
$var wire 1 2 i_rst_n $end
$var wire 1 J" i_clear_accum $end
$var wire 8 K" i_data [7:0] $end
$var wire 8 L" i_weight [7:0] $end
$var reg 8 M" o_data [143:136] $end
$var reg 8 N" o_weight [143:136] $end
$var reg 48 O" o_result [671:624] $end
$var reg 8 P" data_r [7:0] $end
$var reg 8 Q" weight_r [7:0] $end
$var reg 16 R" mult_r [15:0] $end
$var reg 48 S" accum [47:0] $end
$var reg 48 T" next_accum [47:0] $end
$var reg 1 U" clear_d1 $end
$var reg 1 V" clear_d2 $end
$upscope $end
$scope module row[3].col[2].pe_inst $end
$var wire 1 1 i_clk $end
$var wire 1 2 i_rst_n $end
$var wire 1 W" i_clear_accum $end
$var wire 8 X" i_data [7:0] $end
$var wire 8 Y" i_weight [7:0] $end
$var reg 8 Z" o_data [151:144] $end
$var reg 8 [" o_weight [151:144] $end
$var reg 48 \" o_result [719:672] $end
$var reg 8 ]" data_r [7:0] $end
$var reg 8 ^" weight_r [7:0] $end
$var reg 16 _" mult_r [15:0] $end
$var reg 48 `" accum [47:0] $end
$var reg 48 a" next_accum [47:0] $end
$var reg 1 b" clear_d1 $end
$var reg 1 c" clear_d2 $end
$upscope $end
$scope module row[3].col[3].pe_inst $end
$var wire 1 1 i_clk $end
$var wire 1 2 i_rst_n $end
$var wire 1 d" i_clear_accum $end
$var wire 8 e" i_data [7:0] $end
$var wire 8 f" i_weight [7:0] $end
$var reg 8 g" o_data [159:152] $end
$var reg 8 h" o_weight [159:152] $end
$var reg 48 i" o_result [767:720] $end
$var reg 8 j" data_r [7:0] $end
$var reg 8 k" weight_r [7:0] $end
$var reg 16 l" mult_r [15:0] $end
$var reg 48 m" accum [47:0] $end
$var reg 48 n" next_accum [47:0] $end
$var reg 1 o" clear_d1 $end
$var reg 1 p" clear_d2 $end
$upscope $end
$upscope $end
$upscope $end
$scope begin Block171_35 $end
$var reg 32 q" c [31:0] $end
$scope begin Block172_36 $end
$var reg 32 r" i [31:0] $end
$scope begin Block173_37 $end
$var reg 32 s" j [31:0] $end
$upscope $end
$upscope $end
$upscope $end
$scope begin Block183_38 $end
$var reg 32 t" tc [31:0] $end
$scope begin Block183_39 $end
$var reg 1 u" timed_out $end
$upscope $end
$upscope $end
$scope task reset_dut $end
$upscope $end
$scope task write_matrix $end
$upscope $end
$scope task run_and_wait $end
$upscope $end
$scope task check_results $end
$scope begin Block132_31 $end
$upscope $end
$upscope $end
$scope task reset_between_tests $end
$upscope $end
$upscope $end
$enddefinitions $end

#0
$dumpvars
0!
bx !!
x!"
0"
bx "!
x""
0#
bx #!
x#"
0$
x$!
bx $"
0%
x%!
bx %"
b0 &
x&!
bx &"
b0 '
bx '!
bx '"
b0 (
bx (!
bx ("
b0 )
bx )!
bx )"
bx *
bx *!
bx *"
x+
bx +!
bx +"
x,
bx ,!
bx ,"
x-
bx -!
bx -"
x.
bx .!
x."
b0 /
bx /!
x/"
b0 0
bx 0!
x0"
01
x1!
bx 1"
02
x2!
bx 2"
03
x3!
bx 3"
04
bx 4!
bx 4"
05
bx 5!
bx 5"
b0 6
bx 6!
bx 6"
b0 7
bx 7!
bx 7"
b0 8
bx 8!
bx 8"
b0 9
bx 9!
bx 9"
bx :
bx :!
bx :"
bx ;
bx ;!
x;"
bx <
bx <!
x<"
bx =
bx =!
x="
x>
x>!
bx >"
x?
x?!
bx ?"
bx @
x@!
bx @"
bx A
bx A!
bx A"
bx B
bx B!
bx B"
xC
bx C!
bx C"
xD
bx D!
bx D"
xE
bx E!
bx E"
bx F
bx F!
bx F"
xG
bx G!
bx G"
bx H
bx H!
xH"
xI
bx I!
xI"
bx J
bx J!
xJ"
b1 K
xK!
bx K"
bx L
xL!
bx L"
bx M
xM!
bx M"
0N
bx N!
bx N"
0O
bx O!
bx O"
0P
bx P!
bx P"
xQ
bx Q!
bx Q"
b0 R
bx R!
bx R"
b0 S
bx S!
bx S"
xT
bx T!
bx T"
bx U
bx U!
xU"
bx V
bx V!
xV"
bx W
bx W!
xW"
bx X
xX!
bx X"
bx Y
xY!
bx Y"
bx Z
xZ!
bx Z"
x[
bx [!
bx ["
b0 \
bx \!
bx \"
x]
bx ]!
bx ]"
bx ^
bx ^!
bx ^"
bx _
bx _!
bx _"
bx `
bx `!
bx `"
bx a
bx a!
bx a"
bx b
bx b!
xb"
bx c
bx c!
xc"
bx d
bx d!
xd"
bx e
xe!
bx e"
bx f
xf!
bx f"
bx g
xg!
bx g"
xh
bx h!
bx h"
xi
bx i!
bx i"
xj
bx j!
bx j"
bx k
bx k!
bx k"
bx l
bx l!
bx l"
bx m
bx m!
bx m"
bx n
bx n!
bx n"
bx o
bx o!
xo"
bx p
bx p!
xp"
bx q
bx q!
b1101 q"
bx r
xr!
b100 r"
bx s
xs!
b100 s"
bx t
xt!
b0 t"
xu
bx u!
xu"
xv
bx v!
xw
bx w!
bx x
bx x!
bx y
bx y!
bx z
bx z!
bx {
bx {!
bx |
bx |!
bx }
bx }!
bx ~
bx ~!
$end

#5000
1!
b0 !!
0!"
b0 "!
0""
b0 #!
0#"
0$!
b0 $"
0%!
b0 %"
0&!
b0 &"
b0 '!
b0 '"
b0 (!
b0 ("
b0 )!
b0 )"
b0 *
b0 *!
b0 *"
0+
b0 +!
b0 +"
0,
b0 ,!
b0 ,"
0-
b0 -!
b0 -"
0.
b0 .!
0."
b0 /!
0/"
b0 0!
00"
11
01!
b0 1"
02!
b0 2"
03!
b0 3"
b0 4!
b0 4"
b0 5!
b0 5"
b0 6!
b0 6"
b0 7!
b0 7"
b0 8!
b0 8"
b0 9!
b0 9"
b0 :!
b0 :"
b0 ;!
0;"
b0 <
b0 <!
0<"
b0 =
b0 =!
0="
0>
0>!
b0 >"
0?
0?!
b0 ?"
b0 @
0@!
b0 @"
b0 A
b0 A!
b0 A"
b0 B
b0 B!
b0 B"
0C
b0 C!
b0 C"
0D
b0 D!
b0 D"
0E
b0 E!
b0 E"
b0 F
b0 F!
b0 F"
0G
b0 G!
b0 G"
b0 H
b0 H!
0H"
0I
b0 I!
0I"
b1 J
b0 J!
0J"
0K!
b0 K"
b0 L
0L!
b0 L"
b0 M
0M!
b0 M"
b0 N!
b0 N"
b0 O!
b0 O"
b0 P!
b0 P"
0Q
b0 Q!
b0 Q"
b0 R!
b0 R"
b0 S!
b0 S"
0T
b0 T!
b0 T"
b0 U
b0 U!
0U"
b0 V
b0 V!
0V"
b0 W
b0 W!
0W"
b0 X
0X!
b0 X"
b0 Y
0Y!
b0 Y"
b0 Z
0Z!
b0 Z"
0[
b0 [!
b0 ["
b0 \!
b0 \"
0]
b0 ]!
b0 ]"
b0 ^
b0 ^!
b0 ^"
b0 _
b0 _!
b0 _"
b0 `
b0 `!
b0 `"
b0 a
b0 a!
b0 a"
b0 b
b0 b!
0b"
b0 c
b0 c!
0c"
b0 d
b0 d!
0d"
b0 e
0e!
b0 e"
b0 f
0f!
b0 f"
b0 g
0g!
b0 g"
0h
b0 h!
b0 h"
0i
b0 i!
b0 i"
0j
b0 j!
b0 j"
b0 k
b0 k!
b0 k"
b0 l
b0 l!
b0 l"
b0 m
b0 m!
b0 m"
b0 n
b0 n!
b0 n"
b0 o
b0 o!
0o"
b0 p
b0 p!
0p"
b0 q
b0 q!
b0 r
0r!
b0 s
0s!
b0 t
0t!
0u
b0 u!
0v
b0 v!
0w
b0 w!
b0 x
b0 x!
b0 y
b0 y!
b0 z
b0 z!
b0 {
b0 {!
b0 |
b0 |!
b0 }
b0 }!
b0 ~
b0 ~!

#10000
0!
01

#15000
1!
11

#20000
0!
01

#25000
1!
11

#30000
0!
01

#35000
1!
1"
11
12
b111 \

#40000
0!
01

#45000
1!
11
b111 \

#50000
0!
01

#55000
1!
11
b111 \

#56000
1$
b1 '
14
b1 7

#60000
0!
01

#65000
1!
11
b111 \

#66000
b1 &
b0 '
b1 6
b0 7

#70000
0!
01

#75000
1!
11
b111 \

#76000
b10 &
b100000000 '
b10 6
b100000000 7

#80000
0!
01

#85000
1!
11
b111 \

#86000
b11 &
b0 '
b11 6
b0 7

#90000
0!
01

#95000
1!
11
b111 \

#96000
b100 &
b10000000000000000 '
b100 6
b10000000000000000 7

#100000
0!
01

#105000
1!
11
b111 \

#106000
b101 &
b0 '
b101 6
b0 7

#110000
0!
01

#115000
1!
11
b111 \

#116000
b110 &
b1000000000000000000000000 '
b110 6
b1000000000000000000000000 7

#120000
0!
01

#125000
1!
11
b111 \

#126000
0$
04

#130000
0!
01

#135000
1!
11
b111 \

#136000
1%
b0 &
b10111001 '
15
b0 6
b10111001 7

#140000
0!
01

#145000
1!
11
b111 \

#146000
b1 &
b1000110011110010 '
b1 6
b1000110011110010 7

#150000
0!
01

#155000
1!
11
b111 \

#156000
b10 &
b11001100011101011000 '
b10 6
b11001100011101011000 7

#160000
0!
01

#165000
1!
11
b111 \

#166000
b11 &
b11111101101101001001000011101111 '
b11 6
b11111101101101001001000011101111 7

#170000
0!
01

#175000
1!
11
b111 \

#176000
b100 &
b10101100100011111111011100000000 '
b100 6
b10101100100011111111011100000000 7

#180000
0!
01

#185000
1!
11
b111 \

#186000
b101 &
b10101111100011010000000000000000 '
b101 6
b10101111100011010000000000000000 7

#190000
0!
01

#195000
1!
11
b111 \

#196000
b110 &
b11100101000000000000000000000000 '
b110 6
b11100101000000000000000000000000 7

#200000
0!
01

#205000
1!
11
b111 \

#206000
0%
05

#210000
0!
01

#215000
1!
11
b111 \

#220000
0!
01

#225000
1!
11
b111 \

#226000
1#
13
b10 K
1N

#230000
0!
01

#235000
1!
11
1?
b10 J
b100 K
0N
1O
1T
b111 \

#236000
0#
03
b100 K
1O

#240000
0!
01

#245000
1!
11
1>
0?
1E
1G
b100 J
b1 M
1O
1P
b1 R
b1 S
0T
b1111111111111111 Y
1[
b111 \
1]

#250000
0!
01

#255000
1!
11
13!
b1 :
b10111001 ;
b1 <
b1 =
b1 @
b10111001 A
1D
b1 F
b1 H
b1 L
b10 M
1O
1P
b10 R
b10 S
b1 U
b10111001 V
b1 W
b10111001 X
b11111111111111110000000000000000 Y
b1 Z
b111 \
0]
b1 ^
b10111001 _
1h
1j

#260000
0!
01

#265000
1!
11
03!
b10111001 5!
b0 :
b1000110011110010 ;
b10 <
b10 =
1>!
b0 @
1@!
b1000110011110010 A
b10 F
b10 H
b10 L
b11 M
1O
1P
b11 R
b11 S
b0 U
b1000110011110010 V
b100000000 W
b1011100100000000000000001000110011110010 X
b111111111111111100000000000000000000000000000000 Y
b10 Z
b111 \
b0 ^
b11110010 _
b1 `
b10111001 a
b1 c
b10111001 d
1g!
0h
1i
0j
b1 k
b10001100 l
1u
1w

#270000
0!
01

#275000
1!
1$!
1&!
11
b1 4!
b11110010 5!
b10111001 7!
b100000000 :
b10111001 :!
b11001100011101011000 ;
b11 <
b11 =
1="
0>!
1?!
b100000000 @
0@!
b11001100011101011000 A
b10001100 B!
b11 F
b11 H
1K!
b11 L
b100 M
1M!
1O
1P
b100 R
b100 S
b100000000 U
b11001100011101011000 V
b10000000000000000000000010000000000000000 W
b101110010000000000000000100011001111001000000000000011001100011101011000 X
b1111111111111111000000000000000000000000000000000000000000000000 Y
b11 Z
b111 \
b1011000 _
b0 `
b11110010 a
b0 c
b11110010 d
b1111111110111001 e
b111111111111111111111111111111111111111110111001 g
0g!
0i
b10111001 i!
b0 k
b11000111 l
b1 m
b10001100 n
b1 p
b10001100 q
1r!
1t!
0u
1v
0w
b1 x
b1100 y

#280000
0!
01

#285000
1!
1!"
1#"
0$!
1%!
0&!
b1 '!
b11111101 (!
b111111111111111111111111111111111111111110111001 *
11
11!
b0 4!
b1011000 5!
b1 6!
b11110010 7!
b1 9!
b0 :
b11110010 :!
b11111101101101001001000011101111 ;
b100 <
b100 =
0="
0?!
b10111001 ?"
b0 @
b11111101101101001001000011101111 A
b1 A!
b111111111111111111111111111111111111111110111001 B
b11000111 B!
b10001100 D!
b100 F
b10001100 G!
b100 H
1H"
1J"
0K!
b100 L
1L!
b101 M
0M!
1O
b1100 O!
1P
b101 R
b101 S
b0 U
b11111101101101001001000011101111 V
b1000000000000000000000001000000000000000000000000 W
b10111001000000000000000010001100111100100000000000001100110001110101100011111101101101001001000011101111 X
1X!
b11111111111111110000000000000000000000000000000000000000000000000000000000000000 Y
b100 Z
1Z!
b111 \
b11101111 _
b1011000 a
b111111111111111111111111111111111111111110111001 b
b1011000 d
b0 e
b111111111111111111111111111111111111111110111001 f
b11110010 i!
b10111001 k!
b10010000 l
b0 m
b11000111 n
b10111001 n!
b0 p
b11000111 q
b1111111110001100 r
0r!
1s!
b111111111111111111111111111111111111111110001100 t
0t!
0v
b10001100 v!
b0 x
b10110100 y
b1 z
b1100 {
b1 }
b1100 ~

#290000
0!
01

#295000
1!
b1100 !!
0!"
1""
b1100 #!
0#"
0%!
b1100 %"
b0 '!
b10101100 (!
b1 )!
b11111101 *!
b1 ,!
b11111101 -!
1."
10"
11
01!
12!
b11101111 5!
b0 6!
b1011000 7!
b0 9!
b10000000000000000 :
b1011000 :!
b10101100100011111111011100000000 ;
b1111111111110010 ;!
b101 <
b101 =
b111111111111111111111111111111111111111111110010 =!
b11110010 ?"
b10000000000000000 @
b10101100100011111111011100000000 A
b0 A!
b10111001 A"
b111111111111111111111111111111111111111110001100111111111111111111111111111111111111111110111001 B
b10010000 B!
b1 C!
b11000111 D!
b10111001 D"
b101 F
b1 F!
b11000111 G!
b101 H
0H"
1I"
0J"
b101 L
0L!
b10001100 L"
b110 M
b1 N!
1O
b10110100 O!
1P
b1100 Q!
b110 R
b110 S
b1100 T!
b10000000000000000 U
1U"
b10101100100011111111011100000000 V
b100000000000000000000000100000000000000000000000100000000000000000000000000000000 W
1W"
b1011100100000000000000001000110011110010000000000000110011000111010110001111110110110100100100001110111110101100100011111111011100000000 X
0X!
b111111111111111100000000000000000000000000000000000000000000000000000000000000000000000000000000 Y
1Y!
b101 Z
0Z!
b111 \
b11111101 \!
b0 _
b11101111 a
b11101111 d
1e!
b1 h!
b1011000 i!
b11110010 k!
b11110111 l
b10010000 n
b11110010 n!
b111111111111111111111111111111111111111110001100 o
b10010000 q
b0 r
b111111111111111111111111111111111111111110001100 s
0s!
b11000111 v!
b10001100 x!
b10001111 y
b0 z
b10110100 {
b10001100 {!
b0 }
b10110100 ~

#300000
0!
01

#305000
1!
b0 !!
b1100 "!
0""
b10110100 %"
b1100 '"
b10101111 (!
b0 )!
b10101100 *!
b1100 *"
b0 ,!
b10101100 -!
b1111111111111101 .!
0."
1/"
b111111111111111111111111111111111111111111111101 0!
00"
11
02!
b11111101 2"
b0 5!
b11101111 7!
b111111111111111111111111111111111111111111110010 8!
b0 :
b11101111 :!
b10101111100011010000000000000000 ;
b0 ;!
1;"
b110 <
b111111111111111111111111111111111111111111110010 <!
b110 =
b1011000 ?"
b0 @
b10101111100011010000000000000000 A
b11110010 A"
b111111111111111111111111111111111111111111110010000000000000000000000000000000000000000000000000000000000000000000000000000000000000000000001100111111111111111111111111111111111111111110001100111111111111111111111111111111111111111110111001 B
b11110111 B!
b0 C!
b10010000 D!
b11110010 D"
b110 F
b0 F!
b10010000 G!
b110 H
b1111111111000111 H!
0I"
b111111111111111111111111111111111111111111000111 J!
b1000 K
b110 L
b11000111 L"
b0 N!
b10001100 N"
0O
b10001111 O!
1P
b1 P!
b10110100 Q!
b10001100 Q"
b0 R
b0 S
b1 S!
b10110100 T!
b0 U
0U"
b10101111100011010000000000000000 V
1V"
b10000000000000000000000010000000000000000000000000000000000000000000000000000000000000000 W
0W"
b100011001111001000000000000011001100011101011000111111011011010010010000111011111010110010001111111101110000000010101111100011010000000000000000 X
b1111111111111111000000000000000000000000000000000000000000000000000000000000000000000000000000000000000000000000 Y
0Y!
b1100 Y"
b110 Z
b1 [!
b111 \
b10101100 \!
b11111101 ^!
b0 a
b11111101 a!
1b"
b0 d
1d"
0e!
1f!
b0 h!
b11101111 i!
b1 j!
b1011000 k!
b0 l
b1 m!
b11110111 n
b1011000 n!
b11110111 q
b1 u!
b10010000 v!
b11000111 x!
b10001101 y
b10001111 {
b11000111 {!
b1100 |
b10001111 ~

#310000
0!
01

